{
  "fields": [
    {
      "label": "First name:",
      "type": "text",
      "selector": "input[name=first_name][type=text][id=id_first_name]",
      "placeholder": "First Name",
      "required": true,
      "iosLabel": null,
      "iosPlaceholder": null,
      "androidLabel": null,
      "androidPlaceholder": null
    },
    {
      "label": "Last name:",
      "type": "text",
      "selector": "input[name=last_name][type=text][id=id_last_name]",
      "placeholder": "Last Name",
      "required": true,
      "iosLabel": null,
      "iosPlaceholder": null,
      "androidLabel": null,
      "androidPlaceholder": null
    },
    {
      "label": "Email:",
      "type": "email",
      "selector": "input[name=email][type=email][id=id_email]",
      "placeholder": "Email Address",
      "required": true,
      "iosLabel": null,
      "iosPlaceholder": null,
      "androidLabel": null,
      "androidPlaceholder": null
    },
    {
      "label": "Password:",
      "type": "password",
      "selector": "input[name=password][type=password][id=id_password]",
      "placeholder": "Password",
      "required": true,
      "iosLabel": null,
      "iosPlaceholder": null,
      "androidLabel": null,
      "androidPlaceholder": null
    },
    {
      "label": "Repeat:",
      "type": "password",
      "selector": "input[name=password1][type=password][id=id_password1]",
      "placeholder": "Verify Password",
      "required": true,
      "iosLabel": null,
      "iosPlaceholder": null,
      "androidLabel": null,
      "androidPlaceholder": null
    }
  ],
  "formSelector": "form[id=register]",
  "isAjax": false
}